%YAML 1.1
%TAG !u! tag:unity3d.com,2011:
--- !u!221 &22100000
AnimatorOverrideController:
  m_ObjectHideFlags: 0
  m_CorrespondingSourceObject: {fileID: 0}
  m_PrefabInstance: {fileID: 0}
  m_PrefabAsset: {fileID: 0}
  m_Name: Sword Override Controller
  m_Controller: {fileID: 9100000, guid: 68dcb6b86bd46ff4c92cd332e5a0d180, type: 2}
  m_Clips:
  - m_OriginalClip: {fileID: 7400000, guid: 95dc4fbaa01379f4f908847fb44054d4, type: 3}
    m_OverrideClip: {fileID: 7400000, guid: 01ce608905e9d3e48928ced7d03f19ed, type: 3}
  - m_OriginalClip: {fileID: 7400000, guid: 69f3b1b43eb337548a8633b7b82d6fc6, type: 3}
    m_OverrideClip: {fileID: 7400000, guid: 4cc7a6346b1003244b110b3324155da7, type: 3}
  - m_OriginalClip: {fileID: 7400000, guid: 1315bcd7509173f44bc6655b2673dd4d, type: 3}
    m_OverrideClip: {fileID: 7400000, guid: 65ab56ec63abae340b7646d2ed24c864, type: 3}
